test.vcd
$date
	Thu Apr 28 15:48:27 2022
$end
$version
	Icarus Verilog
$end
$timescale
	1ps
$end
$scope module riscvi $end
$var wire 1 ! dec_nop_output $end
$var wire 1 " nop_output_dec $end
$var wire 1 # nop_output_ex $end
$var wire 1 $ nop_output_mem $end
$var wire 32 % out [31:0] $end
$var wire 32 & wb_rd_data [31:0] $end
$var wire 5 ' wb_rd [4:0] $end
$var wire 1 ( store_reg_cu $end
$var wire 1 ) store_mem_cu $end
$var wire 3 * size_load_store [2:0] $end
$var wire 1 + sign_load_store $end
$var wire 5 , rs2_ex_in [4:0] $end
$var wire 5 - rs2_dec [4:0] $end
$var wire 32 . rs2_data_ex_in [31:0] $end
$var wire 32 / rs2Data [31:0] $end
$var wire 5 0 rs1_ex_in [4:0] $end
$var wire 5 1 rs1_dec [4:0] $end
$var wire 32 2 rs1_data_ex_in [31:0] $end
$var wire 32 3 rs1Data [31:0] $end
$var wire 32 4 regfile_rd_data [31:0] $end
$var wire 5 5 regfile_rd [4:0] $end
$var wire 5 6 rd_ex_in [4:0] $end
$var wire 5 7 rd_dec [4:0] $end
$var wire 32 8 pc_out [31:0] $end
$var wire 32 9 pc_input [31:0] $end
$var wire 7 : opcode_wb [6:0] $end
$var wire 7 ; opcode_mem [6:0] $end
$var wire 7 < opcode_ex_in [6:0] $end
$var wire 7 = opcode_ex [6:0] $end
$var wire 7 > opcode_dec [6:0] $end
$var wire 1 ? nop_output_fetch $end
$var wire 32 @ mem_result [31:0] $end
$var wire 5 A mem_rd_in [4:0] $end
$var wire 32 B mem_out_data [31:0] $end
$var wire 32 C mem_data [31:0] $end
$var wire 1 D load_mem_cu $end
$var wire 32 E instruction [31:0] $end
$var wire 32 F imm_ex_in [31:0] $end
$var wire 32 G imm_dec [31:0] $end
$var wire 7 H funct_7_ex [6:0] $end
$var wire 3 I funct_3_ex [2:0] $end
$var wire 7 J funct7_ex_in [6:0] $end
$var wire 7 K funct7_dec [6:0] $end
$var wire 3 L funct3_ex_in [2:0] $end
$var wire 3 M funct3_dec [2:0] $end
$var wire 1 N forward_wb_ex_rs2 $end
$var wire 1 O forward_wb_ex_rs1 $end
$var wire 1 P forward_mem_ex_rs2 $end
$var wire 1 Q forward_mem_ex_rs1 $end
$var wire 2 R fetch_sel [1:0] $end
$var wire 32 S fetch_pipeline_output_instruction [31:0] $end
$var wire 32 T fetch_pipe_pc_out [31:0] $end
$var wire 32 U fetch_input [31:0] $end
$var wire 32 V ex_result [31:0] $end
$var wire 32 W dec_pipe_pc_out [31:0] $end
$var wire 32 X branch_target [31:0] $end
$var wire 1 Y branch_taken $end
$var reg 1 Z clk $end
$var integer 32 [ i [31:0] $end
$scope module control_unit $end
$var wire 1 \ branch_stall $end
$var wire 1 Q forward_mem_ex_rs1 $end
$var wire 1 P forward_mem_ex_rs2 $end
$var wire 1 O forward_wb_ex_rs1 $end
$var wire 1 N forward_wb_ex_rs2 $end
$var wire 1 ] funct_7_bit_ex $end
$var wire 1 ^ jump_stall $end
$var wire 1 " nop_output_dec $end
$var wire 1 # nop_output_ex $end
$var wire 1 ? nop_output_fetch $end
$var wire 1 $ nop_output_mem $end
$var wire 7 _ opcode_fetch [6:0] $end
$var wire 1 ` raw_stall $end
$var wire 1 a stall $end
$var wire 1 b store_reg_wb $end
$var wire 1 ( store_reg $end
$var wire 1 ) store_mem $end
$var wire 3 c size [2:0] $end
$var wire 1 + sign $end
$var wire 5 d rs2_dec [4:0] $end
$var wire 5 e rs1_dec [4:0] $end
$var wire 5 f rd_wb [4:0] $end
$var wire 5 g rd_mem [4:0] $end
$var wire 5 h rd_ex [4:0] $end
$var wire 7 i opcode_wb [6:0] $end
$var wire 7 j opcode_mem [6:0] $end
$var wire 7 k opcode_ex [6:0] $end
$var wire 7 l opcode_dec [6:0] $end
$var wire 1 D load_mem $end
$var wire 3 m funct_3_ex [2:0] $end
$var wire 2 n fetch_sel [1:0] $end
$var wire 1 Y branch_taken $end
$scope function get_instruction_type $end
$var reg 7 o opcode [6:0] $end
$upscope $end
$scope function read_from_register_instruction $end
$var reg 7 p opcode [6:0] $end
$upscope $end
$scope function write_to_register_instruction $end
$var reg 7 q opcode [6:0] $end
$upscope $end
$upscope $end
$scope module dec $end
$var wire 5 r rs2 [4:0] $end
$var wire 5 s rs1 [4:0] $end
$var wire 5 t rd [4:0] $end
$var wire 7 u opcode [6:0] $end
$var wire 32 v instruction [31:0] $end
$var wire 32 w imm_u_type [31:0] $end
$var wire 32 x imm_s_type [31:0] $end
$var wire 32 y imm_j_type [31:0] $end
$var wire 32 z imm_i_type [31:0] $end
$var wire 32 { imm_b_type [31:0] $end
$var wire 32 | imm [31:0] $end
$var wire 7 } funct7 [6:0] $end
$var wire 3 ~ funct3 [2:0] $end
$scope function get_instruction_type $end
$var reg 7 !" opcode [6:0] $end
$upscope $end
$upscope $end
$scope module ex $end
$var wire 1 Z clk $end
$var wire 1 Q forward_mem_ex_rs1 $end
$var wire 1 P forward_mem_ex_rs2 $end
$var wire 1 O forward_wb_ex_rs1 $end
$var wire 1 N forward_wb_ex_rs2 $end
$var wire 32 "" rs2Data_dec [31:0] $end
$var wire 32 #" rs1Data_dec [31:0] $end
$var wire 32 $" rdWb [31:0] $end
$var wire 32 %" rdMem [31:0] $end
$var wire 32 &" pc [31:0] $end
$var wire 7 '" opcode [6:0] $end
$var wire 32 (" imm [31:0] $end
$var wire 7 )" funct7 [6:0] $end
$var wire 3 *" funct3 [2:0] $end
$var reg 32 +" address [31:0] $end
$var reg 1 Y branch_taken $end
$var reg 32 ," data [31:0] $end
$var reg 32 -" result [31:0] $end
$var reg 32 ." rs1Data [31:0] $end
$var reg 32 /" rs2Data [31:0] $end
$upscope $end
$scope module fet $end
$var wire 1 Z clk $end
$var wire 32 0" pc [31:0] $end
$var reg 32 1" instruction [31:0] $end
$upscope $end
$scope module memory $end
$var wire 1 Z clk $end
$var wire 1 D load_mem $end
$var wire 1 + sign $end
$var wire 3 2" size [2:0] $end
$var wire 1 ) store_mem $end
$var wire 32 3" result [31:0] $end
$var wire 32 4" data [31:0] $end
$var reg 32 5" out_data [31:0] $end
$upscope $end
$scope module pcreg $end
$var wire 1 Z clk $end
$var wire 32 6" new_pc [31:0] $end
$var reg 32 7" pc [31:0] $end
$upscope $end
$scope module pipe_dec $end
$var wire 1 Z clk $end
$var wire 3 8" funct3_in [2:0] $end
$var wire 7 9" funct7_in [6:0] $end
$var wire 32 :" imm_in [31:0] $end
$var wire 1 ! nop_output $end
$var wire 7 ;" opcode_in [6:0] $end
$var wire 5 <" rd_in [4:0] $end
$var wire 5 =" rs1_in [4:0] $end
$var wire 5 >" rs2_in [4:0] $end
$var wire 1 ?" stall $end
$var wire 5 @" rs2_out [4:0] $end
$var wire 32 A" rs2_data_out [31:0] $end
$var wire 32 B" rs2_data_in [31:0] $end
$var wire 5 C" rs1_out [4:0] $end
$var wire 32 D" rs1_data_out [31:0] $end
$var wire 32 E" rs1_data_in [31:0] $end
$var wire 5 F" rd_out [4:0] $end
$var wire 32 G" pc_out [31:0] $end
$var wire 32 H" pc_in [31:0] $end
$var wire 7 I" opcode_out [6:0] $end
$var wire 32 J" imm_out [31:0] $end
$var wire 7 K" funct7_out [6:0] $end
$var wire 3 L" funct3_out [2:0] $end
$var reg 3 M" funct3_out_temp [2:0] $end
$var reg 7 N" funct7_out_temp [6:0] $end
$var reg 32 O" imm_out_temp [31:0] $end
$var reg 7 P" opcode_out_temp [6:0] $end
$var reg 32 Q" pc_out_temp [31:0] $end
$var reg 5 R" rd_out_temp [4:0] $end
$var reg 32 S" rs1_data_out_temp [31:0] $end
$var reg 5 T" rs1_out_temp [4:0] $end
$var reg 32 U" rs2_data_out_temp [31:0] $end
$var reg 5 V" rs2_out_temp [4:0] $end
$upscope $end
$scope module pipe_ex $end
$var wire 1 Z clk $end
$var wire 32 W" data_in [31:0] $end
$var wire 3 X" funct_3_in [2:0] $end
$var wire 7 Y" funct_7_in [6:0] $end
$var wire 7 Z" opcode_in [6:0] $end
$var wire 5 [" rd_in [4:0] $end
$var wire 32 \" result_in [31:0] $end
$var reg 32 ]" data_out [31:0] $end
$var reg 3 ^" funct_3_out [2:0] $end
$var reg 7 _" funct_7_out [6:0] $end
$var reg 7 `" opcode_out [6:0] $end
$var reg 5 a" rd_out [4:0] $end
$var reg 32 b" result_out [31:0] $end
$upscope $end
$scope module pipe_fetch $end
$var wire 1 Z clk $end
$var wire 32 c" input_instruction [31:0] $end
$var wire 1 ? nop_output $end
$var wire 32 d" pc_in [31:0] $end
$var reg 7 e" opcode [6:0] $end
$var reg 32 f" output_instruction [31:0] $end
$var reg 32 g" pc_out [31:0] $end
$upscope $end
$scope module pipe_mem $end
$var wire 1 Z clk $end
$var wire 32 h" data_in [31:0] $end
$var wire 7 i" opcode_in [6:0] $end
$var wire 5 j" rd_in [4:0] $end
$var reg 32 k" data_out [31:0] $end
$var reg 7 l" opcode_out [6:0] $end
$var reg 5 m" rd_out [4:0] $end
$upscope $end
$scope module pipe_wb $end
$var wire 1 Z clk $end
$var wire 32 n" data_in [31:0] $end
$var wire 7 o" opcode_in [6:0] $end
$var wire 5 p" rd_in [4:0] $end
$var reg 32 q" data_out [31:0] $end
$var reg 7 r" opcode_out [6:0] $end
$var reg 5 s" rd_out [4:0] $end
$upscope $end
$scope module rf $end
$var wire 1 Z clk $end
$var wire 5 t" rd [4:0] $end
$var wire 32 u" rdData [31:0] $end
$var wire 5 v" rs1 [4:0] $end
$var wire 5 w" rs2 [4:0] $end
$var wire 1 ( wen $end
$var reg 32 x" rs1Data [31:0] $end
$var reg 32 y" rs2Data [31:0] $end
$var integer 32 z" i [31:0] $end
$upscope $end
$upscope $end
$enddefinitions $end
#0
$dumpvars
b100000 z"
bx y"
bx x"
bx w"
bx v"
bx u"
bx t"
bx s"
bx r"
bx q"
bx p"
bx o"
bx n"
bx m"
bx l"
bx k"
bx j"
bx i"
bx h"
bx g"
bx f"
bx e"
b0 d"
bx c"
bx b"
bx a"
bx `"
bx _"
bx ^"
bx ]"
bx \"
bx ["
bx Z"
bx Y"
bx X"
bx W"
bx V"
bx U"
bx T"
bx S"
bx R"
bx Q"
bx P"
bx O"
bx N"
bx M"
bx L"
bx K"
bx J"
bx I"
bx H"
bx G"
bx F"
bx E"
bx D"
bx C"
bx B"
bx A"
bx @"
z?"
bx >"
bx ="
bx <"
bx ;"
b0 :"
bx 9"
bx 8"
b0 7"
bx 6"
bx 5"
bx 4"
bx 3"
bx 2"
bx 1"
bx00 0"
bx /"
bx ."
bx -"
bx ,"
bx +"
bx *"
bx )"
bx ("
bx '"
bx &"
bx %"
bx $"
bx #"
bx ""
bx !"
bx ~
bx }
b0 |
bx0 {
bx z
bx0 y
bx x
bx000000000000 w
bx v
bx u
bx t
bx s
bx r
bx q
bx p
bx o
bx0 n
bx m
bx l
bx k
bx j
bx i
bx h
bx g
bx f
bx e
bx d
bx c
0b
xa
0`
bx _
x^
x]
0\
bx [
xZ
0Y
bx X
bx W
bx V
bx00 U
bx T
bx S
bx0 R
0Q
0P
0O
0N
bx M
bx L
bx K
bx J
bx I
bx H
b0 G
bx F
bx E
xD
bx C
bx B
bx A
bx @
x?
bx >
bx =
bx <
bx ;
bx :
bx 9
b0 8
bx 7
bx 6
bx 5
bx 4
bx 3
bx 2
bx 1
bx 0
bx /
bx .
bx -
bx ,
x+
bx *
0)
0(
bx '
bx &
bx %
z$
z#
z"
z!
$end
#10000
b0 [
#20000
b0 T
b0 H"
b0 g"
0Z
#30000
bx U
bx 0"
bx 8
bx 7"
bx d"
b1 [
1Z
#40000
bx T
bx H"
bx g"
0Z
#50000
b10 [
1Z
#60000
0Z
#70000
b11 [
1Z
#80000
0Z
#90000
b100 [
1Z
#100000
0Z
#110000
b101 [
1Z
#120000
0Z
#130000
b110 [
1Z
#140000
0Z
#150000
b111 [
1Z
#160000
0Z
#170000
b1000 [
1Z
#180000
0Z
#190000
b1001 [
1Z
#200000
0Z
#210000
b1010 [
1Z
#220000
0Z
#230000
b1011 [
1Z
#240000
0Z
#250000
b1100 [
1Z
#260000
0Z
#270000
b1101 [
1Z
#280000
0Z
#290000
b1110 [
1Z
#300000
0Z
#310000
b1111 [
1Z
#320000
0Z
#330000
b10000 [
1Z
#340000
0Z
#350000
b10001 [
1Z
#360000
0Z
#370000
b10010 [
1Z
#380000
0Z
#390000
b10011 [
1Z
#400000
0Z
#410000
b10100 [
1Z
#420000
0Z
#430000
b10101 [
1Z
#440000
0Z
#450000
b10110 [
1Z
#460000
0Z
#470000
b10111 [
1Z
#480000
0Z
#490000
b11000 [
1Z
#500000
0Z
#510000
b11001 [
1Z
#520000
0Z
#530000
b11010 [
1Z
#540000
0Z
#550000
b11011 [
1Z
#560000
0Z
#570000
b11100 [
1Z
#580000
0Z
#590000
b11101 [
1Z
#600000
0Z
#610000
b11110 [
1Z
#620000
0Z
#630000
b11111 [
1Z
#640000
0Z
#650000
b100000 [
1Z
#660000
0Z
#670000
b100001 [
1Z
#680000
0Z
#690000
b100010 [
1Z
#700000
0Z
#710000
b100011 [
1Z
#720000
0Z
#730000
b100100 [
1Z
#740000
0Z
#750000
b100101 [
1Z
#760000
0Z
#770000
b100110 [
1Z
#780000
0Z
#790000
b100111 [
1Z
#800000
0Z
#810000
b101000 [
1Z
#820000
0Z
#830000
b101001 [
1Z
#840000
0Z
#850000
b101010 [
1Z
#860000
0Z
#870000
b101011 [
1Z
#880000
0Z
#890000
b101100 [
1Z
#900000
0Z
#910000
b101101 [
1Z
#920000
0Z
#930000
b101110 [
1Z
#940000
0Z
#950000
b101111 [
1Z
#960000
0Z
#970000
b110000 [
1Z
#980000
0Z
#990000
b110001 [
1Z
#1000000
0Z
#1010000
b110010 [
1Z
#1020000
0Z
#1030000
b110011 [
1Z
#1040000
0Z
#1050000
b110100 [
1Z
#1060000
0Z
#1070000
b110101 [
1Z
#1080000
0Z
#1090000
b110110 [
1Z
#1100000
0Z
#1110000
b110111 [
1Z
#1120000
0Z
#1130000
b111000 [
1Z
#1140000
0Z
#1150000
b111001 [
1Z
#1160000
0Z
#1170000
b111010 [
1Z
#1180000
0Z
#1190000
b111011 [
1Z
#1200000
0Z
#1210000
b111100 [
1Z
#1220000
0Z
#1230000
b111101 [
1Z
#1240000
0Z
#1250000
b111110 [
1Z
#1260000
0Z
#1270000
b111111 [
1Z
#1280000
0Z
#1290000
b1000000 [
1Z
#1300000
0Z
#1310000
b1000001 [
1Z
#1320000
0Z
#1330000
b1000010 [
1Z
#1340000
0Z
#1350000
b1000011 [
1Z
#1360000
0Z
#1370000
b1000100 [
1Z
#1380000
0Z
#1390000
b1000101 [
1Z
#1400000
0Z
#1410000
b1000110 [
1Z
#1420000
0Z
#1430000
b1000111 [
1Z
#1440000
0Z
#1450000
b1001000 [
1Z
#1460000
0Z
#1470000
b1001001 [
1Z
#1480000
0Z
#1490000
b1001010 [
1Z
#1500000
0Z
#1510000
b1001011 [
1Z
#1520000
0Z
#1530000
b1001100 [
1Z
#1540000
0Z
#1550000
b1001101 [
1Z
#1560000
0Z
#1570000
b1001110 [
1Z
#1580000
0Z
#1590000
b1001111 [
1Z
#1600000
0Z
#1610000
b1010000 [
1Z
#1620000
0Z
#1630000
b1010001 [
1Z
#1640000
0Z
#1650000
b1010010 [
1Z
#1660000
0Z
#1670000
b1010011 [
1Z
#1680000
0Z
#1690000
b1010100 [
1Z
#1700000
0Z
#1710000
b1010101 [
1Z
#1720000
0Z
#1730000
b1010110 [
1Z
#1740000
0Z
#1750000
b1010111 [
1Z
#1760000
0Z
#1770000
b1011000 [
1Z
#1780000
0Z
#1790000
b1011001 [
1Z
#1800000
0Z
#1810000
b1011010 [
1Z
#1820000
0Z
#1830000
b1011011 [
1Z
#1840000
0Z
#1850000
b1011100 [
1Z
#1860000
0Z
#1870000
b1011101 [
1Z
#1880000
0Z
#1890000
b1011110 [
1Z
#1900000
0Z
#1910000
b1011111 [
1Z
#1920000
0Z
#1930000
b1100000 [
1Z
#1940000
0Z
#1950000
b1100001 [
1Z
#1960000
0Z
#1970000
b1100010 [
1Z
#1980000
0Z
#1990000
b1100011 [
1Z
#2000000
0Z
#2010000
b1100100 [
1Z
#2020000
0Z
#2030000
b1100101 [
1Z
#2040000
0Z
#2050000
b1100110 [
1Z
#2060000
0Z
#2070000
b1100111 [
1Z
#2080000
0Z
#2090000
b1101000 [
1Z
#2100000
0Z
#2110000
b1101001 [
1Z
#2120000
0Z
#2130000
b1101010 [
1Z
#2140000
0Z
#2150000
b1101011 [
1Z
#2160000
0Z
#2170000
b1101100 [
1Z
#2180000
0Z
#2190000
b1101101 [
1Z
#2200000
0Z
#2210000
b1101110 [
1Z
#2220000
0Z
#2230000
b1101111 [
1Z
#2240000
0Z
#2250000
b1110000 [
1Z
#2260000
0Z
#2270000
b1110001 [
1Z
#2280000
0Z
#2290000
b1110010 [
1Z
#2300000
0Z
#2310000
b1110011 [
1Z
#2320000
0Z
#2330000
b1110100 [
1Z
#2340000
0Z
#2350000
b1110101 [
1Z
#2360000
0Z
#2370000
b1110110 [
1Z
#2380000
0Z
#2390000
b1110111 [
1Z
#2400000
0Z
#2410000
b1111000 [
1Z
#2420000
0Z
#2430000
b1111001 [
1Z
#2440000
0Z
#2450000
b1111010 [
1Z
#2460000
0Z
#2470000
b1111011 [
1Z
#2480000
0Z
#2490000
b1111100 [
1Z
#2500000
0Z
#2510000
b1111101 [
1Z
#2520000
0Z
#2530000
b1111110 [
1Z
#2540000
0Z
#2550000
b1111111 [
1Z
#2560000
0Z
#2570000
b10000000 [
1Z
#2580000
0Z
#2590000
b10000001 [
1Z
#2600000
0Z
#2610000
b10000010 [
1Z
#2620000
0Z
#2630000
b10000011 [
1Z
#2640000
0Z
#2650000
b10000100 [
1Z
#2660000
0Z
#2670000
b10000101 [
1Z
#2680000
0Z
#2690000
b10000110 [
1Z
#2700000
0Z
#2710000
b10000111 [
1Z
#2720000
0Z
#2730000
b10001000 [
1Z
#2740000
0Z
#2750000
b10001001 [
1Z
#2760000
0Z
#2770000
b10001010 [
1Z
#2780000
0Z
#2790000
b10001011 [
1Z
#2800000
0Z
#2810000
b10001100 [
1Z
#2820000
0Z
#2830000
b10001101 [
1Z
#2840000
0Z
#2850000
b10001110 [
1Z
#2860000
0Z
#2870000
b10001111 [
1Z
#2880000
0Z
#2890000
b10010000 [
1Z
#2900000
0Z
#2910000
b10010001 [
1Z
#2920000
0Z
#2930000
b10010010 [
1Z
#2940000
0Z
#2950000
b10010011 [
1Z
#2960000
0Z
#2970000
b10010100 [
1Z
#2980000
0Z
#2990000
b10010101 [
1Z
#3000000
0Z
#3010000
b10010110 [
1Z
#3020000
0Z
#3030000
b10010111 [
1Z
#3040000
0Z
#3050000
b10011000 [
1Z
#3060000
0Z
#3070000
b10011001 [
1Z
#3080000
0Z
#3090000
b10011010 [
1Z
#3100000
0Z
#3110000
b10011011 [
1Z
#3120000
0Z
#3130000
b10011100 [
1Z
#3140000
0Z
#3150000
b10011101 [
1Z
#3160000
0Z
#3170000
b10011110 [
1Z
#3180000
0Z
#3190000
b10011111 [
1Z
#3200000
0Z
#3210000
b10100000 [
1Z
#3220000
0Z
#3230000
b10100001 [
1Z
#3240000
0Z
#3250000
b10100010 [
1Z
#3260000
0Z
#3270000
b10100011 [
1Z
#3280000
0Z
#3290000
b10100100 [
1Z
#3300000
0Z
#3310000
b10100101 [
1Z
#3320000
0Z
#3330000
b10100110 [
1Z
#3340000
0Z
#3350000
b10100111 [
1Z
#3360000
0Z
#3370000
b10101000 [
1Z
#3380000
0Z
#3390000
b10101001 [
1Z
#3400000
0Z
#3410000
b10101010 [
1Z
#3420000
0Z
#3430000
b10101011 [
1Z
#3440000
0Z
#3450000
b10101100 [
1Z
#3460000
0Z
#3470000
b10101101 [
1Z
#3480000
0Z
#3490000
b10101110 [
1Z
#3500000
0Z
#3510000
b10101111 [
1Z
#3520000
0Z
#3530000
b10110000 [
1Z
#3540000
0Z
#3550000
b10110001 [
1Z
#3560000
0Z
#3570000
b10110010 [
1Z
#3580000
0Z
#3590000
b10110011 [
1Z
#3600000
0Z
#3610000
b10110100 [
1Z
#3620000
0Z
#3630000
b10110101 [
1Z
#3640000
0Z
#3650000
b10110110 [
1Z
#3660000
0Z
#3670000
b10110111 [
1Z
#3680000
0Z
#3690000
b10111000 [
1Z
#3700000
0Z
#3710000
b10111001 [
1Z
#3720000
0Z
#3730000
b10111010 [
1Z
#3740000
0Z
#3750000
b10111011 [
1Z
#3760000
0Z
#3770000
b10111100 [
1Z
#3780000
0Z
#3790000
b10111101 [
1Z
#3800000
0Z
#3810000
b10111110 [
1Z
#3820000
0Z
#3830000
b10111111 [
1Z
#3840000
0Z
#3850000
b11000000 [
1Z
#3860000
0Z
#3870000
b11000001 [
1Z
#3880000
0Z
#3890000
b11000010 [
1Z
#3900000
0Z
#3910000
b11000011 [
1Z
#3920000
0Z
#3930000
b11000100 [
1Z
#3940000
0Z
#3950000
b11000101 [
1Z
#3960000
0Z
#3970000
b11000110 [
1Z
#3980000
0Z
#3990000
b11000111 [
1Z
#4000000
0Z
#4010000
b11001000 [
1Z
#4020000
0Z
#4030000
b11001001 [
1Z
#4040000
0Z
#4050000
b11001010 [
1Z
#4060000
0Z
#4070000
b11001011 [
1Z
#4080000
0Z
#4090000
b11001100 [
1Z
#4100000
0Z
#4110000
b11001101 [
1Z
#4120000
0Z
#4130000
b11001110 [
1Z
#4140000
0Z
#4150000
b11001111 [
1Z
#4160000
0Z
#4170000
b11010000 [
1Z
#4180000
0Z
#4190000
b11010001 [
1Z
#4200000
0Z
#4210000
b11010010 [
1Z
#4220000
0Z
#4230000
b11010011 [
1Z
#4240000
0Z
#4250000
b11010100 [
1Z
#4260000
0Z
#4270000
b11010101 [
1Z
#4280000
0Z
#4290000
b11010110 [
1Z
#4300000
0Z
#4310000
b11010111 [
1Z
#4320000
0Z
#4330000
b11011000 [
1Z
#4340000
0Z
#4350000
b11011001 [
1Z
#4360000
0Z
#4370000
b11011010 [
1Z
#4380000
0Z
#4390000
b11011011 [
1Z
#4400000
0Z
#4410000
b11011100 [
1Z
#4420000
0Z
#4430000
b11011101 [
1Z
#4440000
0Z
#4450000
b11011110 [
1Z
#4460000
0Z
#4470000
b11011111 [
1Z
#4480000
0Z
#4490000
b11100000 [
1Z
#4500000
0Z
#4510000
b11100001 [
1Z
#4520000
0Z
#4530000
b11100010 [
1Z
#4540000
0Z
#4550000
b11100011 [
1Z
#4560000
0Z
#4570000
b11100100 [
1Z
#4580000
0Z
#4590000
b11100101 [
1Z
#4600000
0Z
#4610000
b11100110 [
1Z
#4620000
0Z
#4630000
b11100111 [
1Z
#4640000
0Z
#4650000
b11101000 [
1Z
#4660000
0Z
#4670000
b11101001 [
1Z
#4680000
0Z
#4690000
b11101010 [
1Z
#4700000
0Z
#4710000
b11101011 [
1Z
#4720000
0Z
#4730000
b11101100 [
1Z
#4740000
0Z
#4750000
b11101101 [
1Z
#4760000
0Z
#4770000
b11101110 [
1Z
#4780000
0Z
#4790000
b11101111 [
1Z
#4800000
0Z
#4810000
b11110000 [
1Z
#4820000
0Z
#4830000
b11110001 [
1Z
#4840000
0Z
#4850000
b11110010 [
1Z
#4860000
0Z
#4870000
b11110011 [
1Z
#4880000
0Z
#4890000
b11110100 [
1Z
#4900000
0Z
#4910000
b11110101 [
1Z
#4920000
0Z
#4930000
b11110110 [
1Z
#4940000
0Z
#4950000
b11110111 [
1Z
#4960000
0Z
#4970000
b11111000 [
1Z
#4980000
0Z
#4990000
b11111001 [
1Z
#5000000
0Z
#5010000
b11111010 [
1Z
#5020000
0Z
#5030000
b11111011 [
1Z
#5040000
0Z
#5050000
b11111100 [
1Z
#5060000
0Z
#5070000
b11111101 [
1Z
#5080000
0Z
#5090000
b11111110 [
1Z
#5100000
0Z
#5110000
b11111111 [
1Z
#5120000
0Z
#5130000
b100000000 [
1Z
#5140000
0Z
#5150000
b100000001 [
1Z
#5160000
0Z
#5170000
b100000010 [
1Z
#5180000
0Z
#5190000
b100000011 [
1Z
#5200000
0Z
#5210000
b100000100 [
1Z
#5220000
0Z
#5230000
b100000101 [
1Z
#5240000
0Z
#5250000
b100000110 [
1Z
#5260000
0Z
#5270000
b100000111 [
1Z
#5280000
0Z
#5290000
b100001000 [
1Z
#5300000
0Z
#5310000
b100001001 [
1Z
#5320000
0Z
#5330000
b100001010 [
1Z
#5340000
0Z
#5350000
b100001011 [
1Z
#5360000
0Z
#5370000
b100001100 [
1Z
#5380000
0Z
#5390000
b100001101 [
1Z
#5400000
0Z
#5410000
b100001110 [
1Z
#5420000
0Z
#5430000
b100001111 [
1Z
#5440000
0Z
#5450000
b100010000 [
1Z
#5460000
0Z
#5470000
b100010001 [
1Z
#5480000
0Z
#5490000
b100010010 [
1Z
#5500000
0Z
#5510000
b100010011 [
1Z
#5520000
0Z
#5530000
b100010100 [
1Z
#5540000
0Z
#5550000
b100010101 [
1Z
#5560000
0Z
#5570000
b100010110 [
1Z
#5580000
0Z
#5590000
b100010111 [
1Z
#5600000
0Z
#5610000
b100011000 [
1Z
#5620000
0Z
#5630000
b100011001 [
1Z
#5640000
0Z
#5650000
b100011010 [
1Z
#5660000
0Z
#5670000
b100011011 [
1Z
#5680000
0Z
#5690000
b100011100 [
1Z
#5700000
0Z
#5710000
b100011101 [
1Z
#5720000
0Z
#5730000
b100011110 [
1Z
#5740000
0Z
#5750000
b100011111 [
1Z
#5760000
0Z
#5770000
b100100000 [
1Z
#5780000
0Z
#5790000
b100100001 [
1Z
#5800000
0Z
#5810000
b100100010 [
1Z
#5820000
0Z
#5830000
b100100011 [
1Z
#5840000
0Z
#5850000
b100100100 [
1Z
#5860000
0Z
#5870000
b100100101 [
1Z
#5880000
0Z
#5890000
b100100110 [
1Z
#5900000
0Z
#5910000
b100100111 [
1Z
#5920000
0Z
#5930000
b100101000 [
1Z
#5940000
0Z
#5950000
b100101001 [
1Z
#5960000
0Z
#5970000
b100101010 [
1Z
#5980000
0Z
#5990000
b100101011 [
1Z
#6000000
0Z
#6010000
b100101100 [
1Z
#6020000
0Z
#6030000
b100101101 [
1Z
#6040000
0Z
#6050000
b100101110 [
1Z
#6060000
0Z
#6070000
b100101111 [
1Z
#6080000
0Z
#6090000
b100110000 [
1Z
#6100000
0Z
#6110000
b100110001 [
1Z
#6120000
0Z
#6130000
b100110010 [
1Z
#6140000
0Z
#6150000
b100110011 [
1Z
#6160000
0Z
#6170000
b100110100 [
1Z
#6180000
0Z
#6190000
b100110101 [
1Z
#6200000
0Z
#6210000
b100110110 [
1Z
#6220000
0Z
#6230000
b100110111 [
1Z
#6240000
0Z
#6250000
b100111000 [
1Z
#6260000
0Z
#6270000
b100111001 [
1Z
#6280000
0Z
#6290000
b100111010 [
1Z
#6300000
0Z
#6310000
b100111011 [
1Z
#6320000
0Z
#6330000
b100111100 [
1Z
#6340000
0Z
#6350000
b100111101 [
1Z
#6360000
0Z
#6370000
b100111110 [
1Z
#6380000
0Z
#6390000
b100111111 [
1Z
#6400000
0Z
#6410000
b101000000 [
1Z
#6420000
0Z
#6430000
b101000001 [
1Z
#6440000
0Z
#6450000
b101000010 [
1Z
#6460000
0Z
#6470000
b101000011 [
1Z
#6480000
0Z
#6490000
b101000100 [
1Z
#6500000
0Z
#6510000
b101000101 [
1Z
#6520000
0Z
#6530000
b101000110 [
1Z
#6540000
0Z
#6550000
b101000111 [
1Z
#6560000
0Z
#6570000
b101001000 [
1Z
#6580000
0Z
#6590000
b101001001 [
1Z
#6600000
0Z
#6610000
b101001010 [
1Z
#6620000
0Z
#6630000
b101001011 [
1Z
#6640000
0Z
#6650000
b101001100 [
1Z
#6660000
0Z
#6670000
b101001101 [
1Z
#6680000
0Z
#6690000
b101001110 [
1Z
#6700000
0Z
#6710000
b101001111 [
1Z
#6720000
0Z
#6730000
b101010000 [
1Z
#6740000
0Z
#6750000
b101010001 [
1Z
#6760000
0Z
#6770000
b101010010 [
1Z
#6780000
0Z
#6790000
b101010011 [
1Z
#6800000
0Z
#6810000
b101010100 [
1Z
#6820000
0Z
#6830000
b101010101 [
1Z
#6840000
0Z
#6850000
b101010110 [
1Z
#6860000
0Z
#6870000
b101010111 [
1Z
#6880000
0Z
#6890000
b101011000 [
1Z
#6900000
0Z
#6910000
b101011001 [
1Z
#6920000
0Z
#6930000
b101011010 [
1Z
#6940000
0Z
#6950000
b101011011 [
1Z
#6960000
0Z
#6970000
b101011100 [
1Z
#6980000
0Z
#6990000
b101011101 [
1Z
#7000000
0Z
#7010000
b101011110 [
1Z
#7020000
0Z
#7030000
b101011111 [
1Z
#7040000
0Z
#7050000
b101100000 [
1Z
#7060000
0Z
#7070000
b101100001 [
1Z
#7080000
0Z
#7090000
b101100010 [
1Z
#7100000
0Z
#7110000
b101100011 [
1Z
#7120000
0Z
#7130000
b101100100 [
1Z
#7140000
0Z
#7150000
b101100101 [
1Z
#7160000
0Z
#7170000
b101100110 [
1Z
#7180000
0Z
#7190000
b101100111 [
1Z
#7200000
0Z
#7210000
b101101000 [
1Z
#7220000
0Z
#7230000
b101101001 [
1Z
#7240000
0Z
#7250000
b101101010 [
1Z
#7260000
0Z
#7270000
b101101011 [
1Z
#7280000
0Z
#7290000
b101101100 [
1Z
#7300000
0Z
#7310000
b101101101 [
1Z
#7320000
0Z
#7330000
b101101110 [
1Z
#7340000
0Z
#7350000
b101101111 [
1Z
#7360000
0Z
#7370000
b101110000 [
1Z
#7380000
0Z
#7390000
b101110001 [
1Z
#7400000
0Z
#7410000
b101110010 [
1Z
#7420000
0Z
#7430000
b101110011 [
1Z
#7440000
0Z
#7450000
b101110100 [
1Z
#7460000
0Z
